{
  "bash": {
    "prefix": [
      "bash",
      "#!",
      "shebang"
    ],
    "body": "${1|#!/bin/bash,#!/usr/bin/env bash|}\n",
    "description": [
      "Option 1:\n",
      "#!/bin/bash\n",
      "Description: Shebang Bash executor.\n",
      "Option 2:\n",
      "#!/usr/bin/env bash\n",
      "Description: Shell searchs for the first match of bash in the $PATH environment variable.\n",
      "It can be useful if you aren't aware of the absolute path or don't want to search for it.\n"
    ]
  },
  "echo": {
    "prefix": "echo",
    "body": "echo \"${1:message}\"",
    "description": "Echo a message."
  },
  "read": {
    "prefix": "read",
    "body": "read -r ${1:VAR}",
    "description": "Read input of ${VAR}."
  },
  "if": {
    "prefix": "if",
    "body": "if [[ ${1:condition} ]]; then\n\t${0}\nfi",
    "description": "An IF statement."
  },
  "elseif": {
    "prefix": "elseif",
    "body": "elif [[ ${1:condition} ]]; then\n\t${0}",
    "description": "Add an elseif to an if statement."
  },
  "else": {
    "prefix": "else",
    "body": "else\n\t${1:command}",
    "description": "else"
  },
  "forin": {
    "prefix": "forin",
    "body": "for ${1:var} in ${2:list}; do\n\t${0}\ndone\n",
    "description": "for loop in list"
  },
  "fori": {
    "prefix": "fori",
    "body": "for ((i=0; i < ${1:max}; i++)); do\n\t${0}\ndone\n",
    "description": "for loop in list"
  },
  "while": {
    "prefix": "while",
    "body": "while [[ ${1:condition} ]]; do\n\t${0}\ndone\n",
    "description": "A while loop by condition."
  },
  "until": {
    "prefix": "until",
    "body": "until [[ ${1:condition} ]]; do\n\t${0}\ndone\n",
    "description": "until loop by condition"
  },
  "function": {
    "prefix": "function",
    "body": "${1:name} ()\n{\n\t${0}\n}",
    "description": [
      "This defines a function named name.\n",
      "The reserved word function is optional.\n",
      "If the function reserved word is supplied, the parentheses are optional.\n",
      "1. Recommended way:\n",
      "name() {}\n",
      "2. C-like-way:\nfunction name [()] {}"
    ]
  },
  "case": {
    "prefix": "case",
    "body": "case \"$${0:VAR}\" in\n\t${1:1}) echo 1\n\t;;\n\t${2:2|3}) echo 2 or 3\n\t;;\n\t*) echo default\n\t;;\nesac\n",
    "description": [
      "case word in [ [(] pattern [ | pattern ] ... ) list ;; ] ... esac\n",
      "A case command first expands word, and tries to match it against each pattern in turn."
    ]
  },
  "break": {
    "prefix": "break",
    "body": "break ${0}",
    "description": [
      "The break command tells Bash to leave the loop straight away.\n",
      "Enter the break or break (n) where n=number of loops."
    ]
  },
  "expr": {
    "prefix": "expr",
    "body": "expr ${0:1 + 1}",
    "description": "Calculate numbers with Bash."
  }
}
